{
    "html": {
        "frontend": {
            "menu": {
                "id": "demo-page-link",
                "title": "Demo",
                "icon": "fas fa-laptop",
                "href": "/demo/",
                "children": {
                    "login": {
                        "id": "demo-page-login-link",
                        "title": "Login",
                        "icon": "fas fa-sign-in-alt",
                        "href": "/demo/login/",
                        "children": {
                            "pages-register": {
                                "id": "demo-dashboard-register-page-link",
                                "title": "Account Registration",
                                "icon": "fas fa-user-plus",
                                "href": "/demo/registration/"
                            },
                            "pages-forgot-password": {
                                "id": "demo-dashboard-forgot-password-page-link",
                                "title": "Forgot Password",
                                "icon": "fas fa-unlock",
                                "href": "/demo/forgot-password/"
                            }
                        }
                    },
                    "frontend": {
                        "id": "demo-page-frontend-link",
                        "title": "Frontend",
                        "icon": "fas fa-pager",
                        "href": "/demo/",
                        "children": {
                            "three-column": {
                                "id": "demo-three-column-page-link",
                                "title": "Three Columns",
                                "icon": "fas fa-columns",
                                "href": "/demo/three-columns/"
                            }
                        }
                    },
                    "dashboard": {
                        "id": "demo-dashboard-page-link",
                        "title": "Dashboard",
                        "icon": "fas fa-tachometer-alt",
                        "href": "/demo/dashboard/",
                        "children": {
                            "charts": {
                                "id": "demo-dashboard-charts-page-link",
                                "title": "Dashboard Charts",
                                "icon": "far fa-chart-bar",
                                "href": "/demo/dashboard/tables/"
                            },
                            "tables": {
                                "id": "demo-dashboard-tables-page-link",
                                "title": "Dashboard Tables",
                                "icon": "fas fa-table",
                                "href": "/demo/dashboard/charts/"
                            },
                            "components-buttons": {
                                "id": "demo-dashboard-components-buttons-page-link",
                                "title": "Dashboard Button Components",
                                "icon": "fas fa-cube",
                                "href": "/demo/dashboard/buttons/"
                            },
                            "components-cards": {
                                "id": "demo-dashboard-components-cards-page-link",
                                "title": "Dashboard Card Components",
                                "icon": "fas fa-cube",
                                "href": "/demo/dashboard/cards/"
                            },
                            "utilities-colors": {
                                "id": "demo-dashboard-utilities-colors-page-link",
                                "title": "Dashboard Color Utilities",
                                "icon": "fas fa-palette",
                                "href": "/demo/dashboard/utilities-color/"
                            },
                            "utilities-borders": {
                                "id": "demo-dashboard-utilities-borders-page-link",
                                "title": "Dashboard Border Utilities",
                                "icon": "fas fa-vector-square",
                                "href": "/demo/dashboard/utilities-border/"
                            },
                            "utilities-animations": {
                                "id": "demo-dashboard-utilities-animations-page-link",
                                "title": "Dashboard Animation Utilities",
                                "icon": "fas fa-step-forward",
                                "href": "/demo/dashboard/utilities-animation/"
                            },
                            "utilities-other": {
                                "id": "demo-dashboard-utilities-other-page-link",
                                "title": "Dashboard Misc. Utilities",
                                "icon": "fas fa-toolbox",
                                "href": "/demo/dashboard/utilities-other/"
                            },
                            "pages-blank": {
                                "id": "demo-dashboard-blank-page-link",
                                "title": "Dashboard Blank Page",
                                "icon": "fas fa-chalkboard",
                                "href": "/demo/dashboard/blank-page/"
                            },
                            "pages-401": {
                                "id": "demo-dashboard-401-error-page-link",
                                "title": "Dashboard 401 Error",
                                "icon": "fas fa-lock",
                                "href": "/demo/dashboard/not-authorized/"
                            },
                            "pages-403": {
                                "id": "demo-dashboard-403-error-page-link",
                                "title": "Dashboard 403 Error",
                                "icon": "fas fa-user-lock",
                                "href": "/demo/dashboard/forbidden/"
                            },
                            "pages-404": {
                                "id": "demo-dashboard-404-error-page-link",
                                "title": "Dashboard 404 Error",
                                "icon": "fas fa-search-minus",
                                "href": "/demo/dashboard/not-found/"
                            },
                            "pages-500": {
                                "id": "demo-dashboard-500-error-page-link",
                                "title": "Dashboard 500 Error",
                                "icon": "fas fa-dumpster-fire",
                                "href": "/demo/dashboard/server-error/"
                            },
                            "pages-501": {
                                "id": "demo-dashboard-501-error-page-link",
                                "title": "Dashboard 501 Error",
                                "icon": "fas fa-hard-hat",
                                "href": "/demo/dashboard/not-implemented/"
                            }
                        }
                    },
                    "maintenance": {
                        "id": "demo-page-maintenance-link",
                        "title": "Maintenance",
                        "icon": "fas fa-tools",
                        "href": "/demo/maintenance/"
                    }
                }
            },
            "ui-menu": {
            }
        },
        "dashboard": {
            "configuration-menu": {
            },
            "ui-menu": {
            }
        }
    },
    "cli": {}
}
