<?xml version="1.0" encoding="utf-8"?>
<!-- Generator: Adobe Illustrator 25.2.3, SVG Export Plug-In . SVG Version: 6.00 Build 0)  -->
<svg version="1.1" id="Layer_1" xmlns="http://www.w3.org/2000/svg" xmlns:xlink="http://www.w3.org/1999/xlink" x="0px" y="0px"
	 viewBox="0 0 200 200" style="enable-background:new 0 0 200 200;" xml:space="preserve">
<style type="text/css">
	.st0{fill:#DB2E3B;}
	.st1{fill:#A3263B;}
	.st2{fill:#FFFFFF;}
	.st3{fill:#6CA53A;}
</style>
<g>
	<path class="st0" d="M199.81,169.42c0,16.78-13.61,30.39-30.39,30.39H30.58c-16.78,0-30.39-13.61-30.39-30.39V30.58
		C0.19,13.8,13.8,0.19,30.58,0.19h138.83c16.78,0,30.39,13.61,30.39,30.39V169.42z"/>
	<g>
		<path class="st1" d="M175.93,66.77c0,0-5.83,3.59-7.85-2.47s-12.1-14.12-12.1-14.12s1.03-5.14-0.22-9.19l-3.84-3.84
			c-1.17,1.47-3.98,4.11-8.36,2.85c-6.21-1.78-15.58-10.72-26.05-11.03c-14.07-0.42-30.95,2-47.91,11.37
			C1.28,78.08,47.88,151.05,47.88,151.05l48.75,48.75h72.78c16.78,0,30.39-13.61,30.39-30.39V90.64L175.93,66.77z M142.59,150.67
			c-16.8,12-33.4,15.01-47.89,13.6c-0.28-0.31-0.5-0.73-0.59-1.17c0.08,0.38,0.17,0.76,0.26,1.14c0,0-0.01,0-0.01,0
			c-0.98-4.22-1.5-8.62-1.5-13.14c0-3.09,0.13-4.2,0.06-1.75c-0.02,0.56-0.02,1.12-0.02,1.68c0-0.91,0.53-1.82,1.2-2.02l0.49-0.16
			c2.21-0.68,4.42-1.27,6.65-1.78c0.67-0.16,1.23-0.89,1.31-1.65c0.38-3.41,1.1-6.77,2.15-10.02c0.23-0.73,0.03-1.62-0.52-2.04
			c-1.7-1.29-3.37-2.65-5-4.07l-0.72-0.61c-0.34-0.3-0.5-0.84-0.47-1.41c2-4.42,4.54-8.55,7.54-12.32c0.34-0.11,0.67-0.14,0.96-0.04
			l0.49,0.16c2.18,0.75,4.32,1.58,6.42,2.48c0.63,0.27,1.51,0.01,2.03-0.56c2.31-2.53,4.88-4.83,7.65-6.85
			c0.62-0.45,0.98-1.3,0.78-1.95c-0.62-2.04-1.17-4.12-1.66-6.23l-0.22-0.92c-0.03-0.11-0.03-0.23-0.02-0.36
			c4.49-2.65,9.37-4.73,14.53-6.16c0.02,0.02,0.04,0.05,0.06,0.07l0.31,0.41c1.32,1.89,2.57,3.82,3.73,5.78
			c0.35,0.59,1.22,0.89,1.97,0.74c3.35-0.69,6.78-1.03,10.22-1.03c0.77,0,1.56-0.47,1.78-1.12c0.7-2.02,1.48-4.02,2.32-6.01
			l0.36-0.87c0-0.01,0.01-0.02,0.01-0.02c3.06,0.2,6.01,0.59,8.84,1.19C168.84,110.21,166.89,133.31,142.59,150.67z"/>
	</g>
	<path class="st2" d="M176.34,67.33c-0.4-1.24-3.95-2.69-3.95-2.69c-3.69-2.05-3.84-3.71-3.84-3.71c1.16-0.72-0.56-2.46-0.56-2.46
		c5.05-2.59-9.74-15.03-9.74-15.03c1.37,5.42-0.69,6.73-0.69,6.73c-0.34-1.04-7.87-5.15-7.87-5.15c1.91-1.74-0.19-6.6-0.19-6.6
		c3.14,2.15,2.14,6.3,2.14,6.3l5.13,2.66c0,0,1.2-6.99-6.63-13.06c-7.83-6.06-7.28-2.52-17.92-10.33
		c-10.02-7.36-7.87-15.86-7.87-15.86c-1.45,1.77-2.88,8.07,1.8,14.76c4.69,6.7,9.28,8.08,14.9,12.37c5.62,4.28,3.96,9.68,3.96,9.68
		c-6.89-0.34-7.9,3.33-7.9,3.33c6.3,0.64,9.94,5.83,9.53,9.31c-0.41,3.48,1.08,5.1,1.08,5.1c-2.24-1.17-2.21-3.99-2.65-6.67
		c-0.44-2.69-3-6.14-7.02-3.16c-4.02,2.98-3.57,7.51-3.57,7.51s3.25-0.71,6.65,1.95c2.02,1.58,4.25,4.62,5.8,7.21
		c-0.62,0.76-1.26,1.52-1.9,2.25c-0.45,0.52-0.47,1.44-0.09,2.1c1.7,2.97,3.09,6.12,4.14,9.37c0.24,0.73,0.93,1.33,1.62,1.34
		c2.14,0.04,4.28,0.16,6.43,0.36l0.94,0.08c0.35,0.03,0.7,0.25,0.99,0.57c1.04,4.33,1.6,8.84,1.6,13.48c0,0.91-0.53,1.8-1.2,2.01
		l-0.49,0.16c-2.21,0.68-4.42,1.27-6.65,1.78c-0.67,0.16-1.23,0.89-1.31,1.65c-0.38,3.41-1.1,6.77-2.15,10.02
		c-0.23,0.73-0.03,1.62,0.52,2.04c1.7,1.29,3.37,2.65,5,4.07l0.72,0.61c0.35,0.31,0.52,0.89,0.47,1.49
		c-1.97,4.37-4.46,8.45-7.41,12.18c-0.38,0.15-0.76,0.19-1.08,0.09l-0.49-0.16c-2.18-0.75-4.32-1.58-6.42-2.48
		c-0.63-0.27-1.51-0.01-2.03,0.56c-2.31,2.53-4.88,4.83-7.65,6.85c-0.62,0.45-0.98,1.3-0.78,1.95c0.62,2.04,1.17,4.12,1.66,6.23
		l0.22,0.92c0.04,0.16,0.03,0.33,0,0.5c-4.45,2.63-9.29,4.7-14.4,6.13c-0.06-0.06-0.12-0.12-0.17-0.19l-0.31-0.41
		c-1.32-1.89-2.57-3.82-3.73-5.78c-0.35-0.59-1.22-0.89-1.97-0.74c-3.35,0.69-6.78,1.03-10.22,1.03c-0.77,0-1.56,0.47-1.78,1.12
		c-0.7,2.02-1.48,4.02-2.32,6.01l-0.36,0.87c-0.02,0.05-0.05,0.11-0.09,0.16c-5.38-0.4-10.56-1.49-15.44-3.19
		c-0.03-0.1-0.04-0.21-0.04-0.31l0-0.51c0.04-2.31,0.16-4.6,0.37-6.87c0.06-0.68-0.46-1.44-1.16-1.76
		c-3.12-1.41-6.09-3.15-8.86-5.17c-0.62-0.45-1.53-0.53-2.1-0.14c-1.75,1.22-3.56,2.38-5.42,3.49l-0.81,0.49
		c-0.21,0.12-0.47,0.17-0.75,0.17c-3.81-3.18-7.21-6.82-10.11-10.83c-0.06-0.46,0.01-0.9,0.23-1.2l0.3-0.42
		c1.39-1.84,2.83-3.63,4.33-5.34c0.45-0.52,0.47-1.44,0.09-2.1c-1.7-2.97-3.09-6.12-4.14-9.37c-0.24-0.73-0.93-1.33-1.62-1.34
		c-2.14-0.04-4.28-0.16-6.43-0.36l-0.94-0.08c-0.69-0.07-1.4-0.85-1.58-1.74c0.12,0.54,0.24,1.07,0.37,1.6l0.03,0l-0.04,0.01
		c-1.06-4.37-1.62-8.93-1.62-13.62c0-3.09,0.13-4.2,0.06-1.75c-0.02,0.56-0.02,1.12-0.02,1.68c0-0.91,0.53-1.82,1.2-2.02l0.49-0.16
		c2.21-0.68,4.42-1.27,6.65-1.78c0.67-0.16,1.23-0.89,1.31-1.65c0.38-3.41,1.1-6.77,2.15-10.02c0.23-0.73,0.03-1.62-0.52-2.04
		c-1.7-1.29-3.37-2.65-5-4.07l-0.72-0.61c-0.34-0.3-0.5-0.84-0.47-1.41c2-4.42,4.54-8.55,7.54-12.32c0.34-0.11,0.67-0.14,0.96-0.04
		l0.49,0.16c2.18,0.75,4.32,1.58,6.42,2.48c0.63,0.27,1.51,0.01,2.03-0.56c2.31-2.53,4.88-4.83,7.65-6.85
		c0.62-0.45,0.98-1.3,0.78-1.95c-0.62-2.04-1.17-4.12-1.66-6.23l-0.22-0.92C70,48.96,69.99,48.84,70,48.72
		c4.49-2.65,9.37-4.73,14.53-6.16c0.02,0.02,0.04,0.05,0.06,0.07l0.31,0.41c1.32,1.89,2.57,3.82,3.73,5.78
		c0.35,0.59,1.22,0.89,1.97,0.74c3.35-0.69,6.78-1.03,10.22-1.03c0.77,0,1.56-0.47,1.78-1.12c0.7-2.02,1.48-4.02,2.32-6.01
		l0.36-0.87c0-0.01,0.01-0.02,0.01-0.02c5.54,0.35,10.7,1.37,15.51,3.02c0.03,0.12,0.05,0.23,0.05,0.35l0,0.51
		c-0.04,2.31-0.16,4.6-0.37,6.87c-0.06,0.68,0.46,1.44,1.16,1.76c3.12,1.41,6.09,3.15,8.86,5.17c0.62,0.45,1.53,0.53,2.1,0.14
		c0.12-0.09,0.25-0.17,0.37-0.25c0.32-1.73,1.17-4.08,3.41-6.03c0,0,0,0,0,0c0.21-0.18,0.43-0.36,0.67-0.54c0,0,0,0,0.01,0
		c0.01-0.01,0.03-0.02,0.04-0.03l0,0c0.66-0.48,1.32-0.85,1.98-1.09c-0.64-0.21-1.36-0.36-2.14-0.44l-1.97-0.2l0.53-1.91
		c0.05-0.18,1.28-4.35,8.07-4.57c0.02-0.77-0.08-1.85-0.58-3.03c-12.15-9.02-27.18-14.35-43.45-14.35
		c-40.36,0-73.08,32.8-73.08,73.26c0,40.46,32.72,73.26,73.08,73.26s73.09-32.8,73.09-73.26c0-7.08-1.32-15.04-3.24-21.7
		c-0.04-0.15-0.31-1.06-0.31-1.06s-1.67,0.99-3.77,1.1c-2.09,0.1-3.77-0.36-3.77-0.36s4.25-3.36,4.41-5.37
		c-0.54-0.68-0.85-0.77-0.98-1.17c-0.17-0.56,0.12-1.24,0.11-1.35c-0.42-0.18-1.17,0.03-1.49-0.34c-0.13-0.15-0.5-0.66-0.73-0.91
		c-0.68-0.73-1.05-1.26-1.53-1.9c-0.23,0.02-1.51,0.05-1.78,0.05c-1.29,0-2.33-0.85-4.24-2.51c-1.2-1.05-1.31-1.9-1.31-1.9
		s-0.47-0.15-0.84-0.21c-0.36-0.06-0.8,0-0.8,0s-2.3,5.81-1.69,11.56c-1.39-6.84,1.33-13.79,1.33-13.79
		c1.1-0.35,2.31,0.28,2.31,0.28s-0.51,1.05,2.09,3.58c2.6,2.54,5.36,1.42,5.36,1.42c0.49,1.04,2.2,2.72,2.83,3.44
		c0.62,0.72,1.33,0.4,1.33,0.4s0.18,0.97,0.21,1.78c0.03,0.81,0.73,1.22,0.73,1.22c-0.46,2.7-4.29,5.41-4.29,5.41
		c6.44-0.05,7.85-3.11,8.08-3.57c0.23-0.46,0.89-0.14,0.89-0.14c4.62-1.22,3.5-3.83,3.5-3.83S176.74,68.57,176.34,67.33z
		 M160.56,102.52c0.03-0.59,0.06-1.19,0.08-1.78c0.02-0.54,0.02-1.09,0.02-1.63c0,0.01,0,0.02,0,0.04
		C160.65,100.28,160.62,101.4,160.56,102.52z M160.53,103c0-0.04,0.01-0.08,0.01-0.12C160.53,102.92,160.53,102.96,160.53,103z
		 M158.24,79.91C158.24,79.91,158.23,79.91,158.24,79.91C158.24,79.9,158.24,79.9,158.24,79.91
		C158.24,79.9,158.24,79.9,158.24,79.91z M161.16,58.88c-1.11-0.1-2.5-1.52-2.96-3.04c-0.46-1.52-0.48-2.24-2.26-3.78
		c0,0,3.71,1.7,4.87,3.02c1.15,1.32,0.74,3.06,2.75,4.3C163.55,59.38,162.26,58.99,161.16,58.88z"/>
	<path class="st3" d="M161.16,58.88c-1.11-0.1-2.5-1.52-2.96-3.04c-0.46-1.52-0.48-2.24-2.26-3.78c0,0,3.71,1.7,4.87,3.02
		c1.15,1.32,0.74,3.06,2.75,4.3C163.55,59.38,162.26,58.99,161.16,58.88z"/>
</g>
</svg>
