<?xml version="1.0" encoding="utf-8"?>
<!-- Generator: Adobe Illustrator 25.2.3, SVG Export Plug-In . SVG Version: 6.00 Build 0)  -->
<svg version="1.1" id="Layer_1" xmlns="http://www.w3.org/2000/svg" xmlns:xlink="http://www.w3.org/1999/xlink" x="0px" y="0px"
	 viewBox="0 0 182.51 200" style="enable-background:new 0 0 182.51 200;" xml:space="preserve">
<style type="text/css">
	.st0{fill:#BA499B;}
</style>
<path class="st0" d="M182.43,72.04c-0.49-1.51-4.81-3.28-4.81-3.28c-4.49-2.49-4.67-4.52-4.67-4.52c1.41-0.88-0.68-2.99-0.68-2.99
	c6.15-3.15-11.86-18.29-11.86-18.29c1.67,6.59-0.85,8.19-0.85,8.19c-0.41-1.26-9.58-6.27-9.58-6.27c2.33-2.12-0.23-8.03-0.23-8.03
	c3.83,2.62,2.61,7.67,2.61,7.67l6.24,3.24c0,0,1.46-8.51-8.07-15.89c-9.53-7.38-8.87-3.06-21.81-12.57
	c-12.2-8.96-9.58-19.3-9.58-19.3c-1.77,2.15-3.51,9.82,2.2,17.97c5.7,8.15,11.3,9.84,18.14,15.05c6.84,5.21,4.82,11.78,4.82,11.78
	c-8.39-0.41-9.62,4.05-9.62,4.05c7.67,0.78,12.1,7.1,11.6,11.34c-0.49,4.24,1.32,6.21,1.32,6.21c-2.72-1.43-2.69-4.85-3.23-8.12
	c-0.54-3.27-3.65-7.47-8.54-3.85c-4.9,3.62-4.35,9.14-4.35,9.14s3.96-0.86,8.1,2.37c2.46,1.92,5.17,5.62,7.05,8.78
	c-0.76,0.93-1.53,1.84-2.32,2.74c-0.55,0.63-0.57,1.75-0.11,2.56c2.07,3.62,3.76,7.45,5.04,11.41c0.29,0.88,1.13,1.62,1.97,1.64
	c2.6,0.05,5.21,0.2,7.83,0.44l1.14,0.09c0.43,0.04,0.85,0.3,1.2,0.7c1.27,5.27,1.94,10.76,1.95,16.41c-0.01,1.1-0.65,2.19-1.45,2.44
	l-0.59,0.2c-2.68,0.83-5.38,1.55-8.09,2.17c-0.81,0.19-1.49,1.08-1.6,2c-0.46,4.15-1.34,8.24-2.62,12.2
	c-0.29,0.88-0.03,1.97,0.63,2.48c2.07,1.57,4.1,3.22,6.08,4.95l0.87,0.75c0.43,0.38,0.63,1.09,0.57,1.82
	c-2.4,5.32-5.43,10.29-9.02,14.83c-0.46,0.19-0.93,0.24-1.31,0.1l-0.6-0.19c-2.66-0.91-5.26-1.92-7.81-3.02
	c-0.77-0.33-1.84-0.01-2.47,0.68c-2.81,3.08-5.94,5.88-9.31,8.34c-0.75,0.55-1.19,1.58-0.95,2.38c0.76,2.49,1.43,5.02,2.02,7.58
	l0.27,1.12c0.04,0.19,0.04,0.4,0,0.61c-5.42,3.2-11.3,5.72-17.52,7.46c-0.08-0.07-0.15-0.15-0.21-0.23l-0.37-0.5
	c-1.61-2.3-3.13-4.65-4.54-7.03c-0.43-0.72-1.48-1.09-2.39-0.9c-4.08,0.84-8.25,1.25-12.44,1.25c-0.93,0-1.89,0.58-2.17,1.37
	c-0.85,2.46-1.8,4.9-2.83,7.32l-0.44,1.06c-0.03,0.07-0.06,0.13-0.1,0.19c-6.54-0.48-12.85-1.81-18.8-3.88
	c-0.03-0.13-0.05-0.26-0.05-0.38l0-0.63c0.05-2.81,0.2-5.6,0.45-8.36c0.07-0.83-0.56-1.75-1.41-2.14
	c-3.79-1.72-7.41-3.83-10.79-6.29c-0.75-0.55-1.87-0.65-2.56-0.17c-2.14,1.48-4.33,2.9-6.59,4.25l-0.98,0.6
	c-0.25,0.15-0.57,0.21-0.91,0.2c-4.64-3.87-8.78-8.3-12.31-13.19c-0.08-0.56,0.01-1.1,0.28-1.46l0.36-0.51
	c1.69-2.25,3.45-4.42,5.27-6.51c0.55-0.63,0.57-1.75,0.11-2.56c-2.07-3.62-3.76-7.45-5.04-11.41c-0.29-0.88-1.13-1.61-1.97-1.64
	c-2.6-0.05-5.21-0.2-7.83-0.44l-1.14-0.09c-0.84-0.08-1.7-1.03-1.92-2.12c0.14,0.65,0.29,1.3,0.45,1.95l0.03,0l-0.04,0.01
	c-1.29-5.32-1.97-10.87-1.97-16.58c0-3.76,0.15-5.12,0.07-2.14c-0.02,0.68-0.03,1.36-0.03,2.04c0-1.11,0.65-2.21,1.46-2.46l0.59-0.2
	c2.68-0.83,5.38-1.55,8.09-2.17c0.81-0.19,1.49-1.08,1.6-2c0.46-4.15,1.34-8.24,2.62-12.2c0.29-0.88,0.03-1.97-0.63-2.48
	c-2.07-1.57-4.1-3.22-6.08-4.95l-0.87-0.75c-0.41-0.36-0.61-1.02-0.58-1.71c2.43-5.38,5.52-10.41,9.17-14.99
	c0.41-0.14,0.82-0.17,1.16-0.05l0.6,0.19c2.66,0.91,5.26,1.92,7.81,3.02c0.77,0.33,1.84,0.01,2.47-0.68
	c2.81-3.08,5.94-5.88,9.31-8.34c0.75-0.55,1.19-1.58,0.95-2.38c-0.76-2.49-1.43-5.02-2.02-7.58l-0.27-1.12
	c-0.03-0.14-0.04-0.28-0.02-0.43c5.47-3.22,11.4-5.76,17.68-7.5c0.03,0.03,0.05,0.06,0.07,0.09l0.37,0.5
	c1.61,2.3,3.13,4.65,4.54,7.03c0.43,0.72,1.48,1.09,2.39,0.9c4.08-0.84,8.25-1.25,12.44-1.25c0.93,0,1.89-0.58,2.17-1.37
	c0.85-2.46,1.8-4.9,2.83-7.32l0.44-1.06c0-0.01,0.01-0.02,0.01-0.03c6.74,0.43,13.03,1.67,18.87,3.68c0.04,0.14,0.06,0.28,0.06,0.42
	l0,0.63c-0.05,2.81-0.2,5.6-0.45,8.36c-0.07,0.83,0.56,1.75,1.41,2.14c3.79,1.72,7.41,3.83,10.79,6.29
	c0.75,0.55,1.87,0.65,2.56,0.17c0.15-0.1,0.3-0.2,0.45-0.31c0.38-2.11,1.43-4.97,4.16-7.34c0,0,0,0,0,0
	c0.26-0.22,0.52-0.44,0.81-0.65c0,0,0,0,0.01-0.01c0.02-0.01,0.04-0.03,0.05-0.04l0,0c0.81-0.59,1.61-1.03,2.42-1.33
	c-0.78-0.25-1.65-0.44-2.61-0.54l-2.4-0.24l0.64-2.33c0.06-0.22,1.56-5.29,9.83-5.56c0.03-0.94-0.09-2.25-0.71-3.69
	c-14.78-10.98-33.08-17.47-52.89-17.47C39.83,21.59,0,61.51,0,110.76c0,49.25,39.83,89.17,88.95,89.17s88.95-39.92,88.95-89.17
	c0-8.62-1.6-18.3-3.94-26.41c-0.05-0.18-0.37-1.29-0.37-1.29s-2.04,1.21-4.58,1.33c-2.55,0.13-4.58-0.44-4.58-0.44
	s5.18-4.1,5.37-6.54c-0.66-0.83-1.04-0.94-1.19-1.42c-0.21-0.68,0.15-1.51,0.14-1.64c-0.51-0.22-1.42,0.04-1.81-0.41
	c-0.16-0.18-0.61-0.8-0.89-1.1c-0.83-0.89-1.28-1.54-1.87-2.31c-0.27,0.03-1.84,0.06-2.16,0.06c-1.57,0-2.83-1.03-5.16-3.06
	c-1.46-1.27-1.59-2.31-1.59-2.31s-0.57-0.18-1.02-0.25s-0.97,0-0.97,0s-2.8,7.07-2.06,14.07c-1.69-8.32,1.62-16.78,1.62-16.78
	c1.33-0.43,2.81,0.34,2.81,0.34s-0.62,1.27,2.55,4.36c3.16,3.09,6.52,1.73,6.52,1.73c0.6,1.27,2.68,3.31,3.44,4.19
	c0.76,0.88,1.62,0.49,1.62,0.49s0.22,1.18,0.26,2.17c0.04,0.99,0.89,1.48,0.89,1.48c-0.56,3.29-5.22,6.58-5.22,6.58
	c7.84-0.06,9.55-3.78,9.83-4.34c0.28-0.56,1.08-0.17,1.08-0.17c5.63-1.49,4.26-4.67,4.26-4.67S182.92,73.55,182.43,72.04z
	 M163.23,114.87c0.04-0.72,0.07-1.44,0.09-2.17c0.02-0.66,0.03-1.33,0.03-1.99c0,0.01,0,0.03,0,0.04
	C163.35,112.14,163.31,113.51,163.23,114.87z M163.19,115.46c0-0.05,0.01-0.1,0.01-0.14C163.2,115.36,163.19,115.41,163.19,115.46z
	 M160.4,87.35C160.4,87.34,160.4,87.34,160.4,87.35C160.4,87.34,160.41,87.34,160.4,87.35C160.41,87.34,160.41,87.34,160.4,87.35z
	 M163.96,61.76c-1.35-0.13-3.05-1.85-3.6-3.7c-0.56-1.85-0.58-2.73-2.75-4.61c0,0,4.52,2.07,5.92,3.68c1.41,1.61,0.9,3.73,3.34,5.23
	C166.87,62.36,165.3,61.88,163.96,61.76z"/>
</svg>
