{
    "http": {
        "html": {
            "localhost": {
                "/update/": {
                    "get": {
                        "controller": "html\\UpdateController",
                        "method": "index"
                    }
                }
            }
        }
    },
    "cli": {
        "*": {
            "localhost": {
                "/update/": {
                    "cli": {
                        "controller": "cli\\UpdateController",
                        "method": "index"
                    }
                }
            }
        },
        "help": {
            "localhost": {
            }
        }
    }
}
