{
    "meta": {
        "file": {"format": "json", "name": "root.default.json", "path": "etc/users/", "path-relative": true},
        "mysql": {"connection": "default", "schema": "users", "table": "users", "columns": {}}
    },
    "require": {
        "auth-users-root-identity": "root",
        "auth-users-root-password": "string",
        "auth-users-root-permissions-identity-groups": ["array", "Oroboros\\core\\interfaces\\library\\container\\ContainerInterface","Oroboros\\core\\interfaces\\library\\auth\\IdentityGroupInterface"],
        "auth-users-root-permissions": ["array", "Oroboros\\core\\interfaces\\library\\container\\ContainerInterface","Oroboros\\core\\interfaces\\library\\auth\\IdentityGroupInterface"]
    },
    "provide": {
        "auth-users-root-identity": "root",
        "auth-users-root-password": "root",
        "auth-users-root-permissions-identity-groups": {
            "root": "root"
        },
        "auth-users-root-permissions": {
            "root": "*"
        }
    },
    "optional": {},
    "defaults": {
        "host": "{::auth-users-root-host::}",
        "username": "{::auth-users-root-identity::}",
        "password": "{::auth-users-root-password::}",
        "identity-groups": "{::auth-users-root-permissions-identity-groups::}",
        "permissions": "{::auth-users-root-permissions::}"
    }
}
