{
    "require": {
        "menu": "Oroboros\\core\\interfaces\\library\\container\\ContainerInterface",
        "ui-menu": "Oroboros\\core\\interfaces\\library\\container\\ContainerInterface",
        "dashboard-sidebar-site-sections": "Oroboros\\core\\interfaces\\library\\container\\ContainerInterface",
        "dashboard-sidebar": "Oroboros\\core\\interfaces\\library\\container\\ContainerInterface",
        "dashboard-sidebar-ui": "Oroboros\\core\\interfaces\\library\\container\\ContainerInterface"
    },
    "optional": {},
    "defaults": {
        "document": {
            "charset": "utf-8",
            "lang": "en"
        },
        "head": {
            "author": "Brian Dayhoff",
            "title": "Oroboros Dashboard Demo Miscellaneous Utilities Page",
            "description": "This page is for displaying a dashboard page with examples of miscellaneous bootstrap utilities"
        },
        "styles": [
            "bootstrap",
            "mdbootstrap",
            "main",
            "dashboard"
        ],
        "scripts": {
            "head": [],
            "body": [],
            "footer": [
                "oroboros",
                "bootstrap",
                "mdbootstrap"
            ]
        },
        "fonts": {},
        "media": {},
        "body": {
            "id": "dashboard-page",
            "class": "dashboard-page dashboard-content demo-page demo-content",
            "title": "{::title::} Demo Dashboard - Misc. Utilities",
            "layout": "DefaultLayout",
            "content": {
                "header": {},
                "sidebar": {
                    "id": "dashboard-sidebar",
                    "class": "dashboard-sidebar",
                    "brand": {
                        "logo": {
                            "default": {
                                "id": "oroboros-logo",
                                "alt": "Oroboros Logo",
                                "class": "dashboard-logo d-none d-lg-inline-block img-fluid",
                                "src": "/public/media/logo/Oroboros-Core-Logo-128x485.png"
                            },
                            "sm": {
                                "id": "oroboros-logo-min",
                                "alt": "Oroboros Logo",
                                "class": "dashboard-logo-min d-lg-none d-md-inline-block img-fluid",
                                "src": "/public/media/logo/icon/124x128/logo_red.png"
                            }
                        }
                    },
                    "header": "{::dashboard-sidebar-site-sections::}",
                    "title": "bibbity",
                    "sections": "{::dashboard-sidebar::}",
                    "ui": "{::dashboard-sidebar-ui::}",
                    "footer": "bibbity"
                },
                "heading": {
                    "title": {
                        "class": false,
                        "component": "dashboard-title",
                        "title-class": "h3 text-gray-800",
                        "subtitle-type": "p",
                        "subtitle-class": false,
                        "title": "Dashboard Demo Content - Miscellaneous Utilities"
                    }
                },
                "primary": {},
                "footer": {},
                "ui": {}
            }
        }
    }
}
