{
    "default": {
        "levels": {
            "debug": false,
            "info": false,
            "warning": true,
            "error": true,
            "critical": true,
            "alert": true,
            "emergency": true
        },
        "modes": {
            "syslog": false,
            "file": true,
            "database": false,
            "console": true
        },
        "formatting": {
            "timestamp": true,
            "level": true,
            "code": false,
            "thread": false,
            "route": false,
            "message": true,
            "verbose": false
        },
        "options": {
            "enabled": true,
            "filename": "errors.log",
            "database-schema": null,
            "database-table": null
        }
    },
    "production": {

    },
    "staging": {

    },
    "development": {
        "levels": {
            "debug": true,
            "info": true
        }
    },
    "ci": {
        "levels": {
            "info": true
        }
    },
    "local": {
        "levels": {
            "debug": true,
            "info": true
        }
    }
}
