{
    "require": {
        "menu": "Oroboros\\core\\interfaces\\library\\container\\ContainerInterface",
        "ui-menu": "Oroboros\\core\\interfaces\\library\\container\\ContainerInterface"
    },
    "optional": {},
    "defaults": {
        "document": {
            "charset": "utf-8",
            "lang": "en"
        },
        "head": {
            "title": "{::title::} - Login",
            "description": "This is the login page for {::title::}",
            "author": "{::author::}"
        },
        "styles": [
            "mdbootstrap",
            "main",
            "login-theme"
        ],
        "scripts": {
            "head": [],
            "body": [],
            "footer": [
                "oroboros", "login", "login-form"
            ]
        },
        "fonts": {},
        "media": {},
        "body": {
            "id": "login-page",
            "class": "index-page index-content",
            "title": "{::title::} - Login",
            "layout": "DefaultLayout",
            "content": {
                "header": {
                    "page-branding": {
                        "id": "page-branding",
                        "class": "col-12 px-0",
                        "component": "primary-navbar",
                        "brand": {
                            "logo": {
                                "default": {
                                    "id": "oroboros-logo",
                                    "alt": "Oroboros Logo",
                                    "class": "documentation-logo d-none d-lg-inline-block",
                                    "src": "/public/media/logo/Oroboros-Core-Logo-128x485.png"
                                },
                                "sm": {
                                    "id": "oroboros-logo-min",
                                    "alt": "Oroboros Logo",
                                    "class": "documentation-logo-min d-lg-none d-md-inline-block",
                                    "src": "/public/media/logo/icon/62x64/logo_red.png"
                                }
                            }
                        },
                        "menu": "{::menu::}",
                        "ui": "{::ui-menu::}"
                    }
                },
                "main": {
                    "login": {
                        "id": "login",
                        "class": null,
                        "component": "login",
                        "title": "Please Log In to Continue",
                        "method": "post"
                    }
                },
                "footer": {}
            }
        }
    }
}
