{
    "require": {
        "menu": "Oroboros\\core\\interfaces\\library\\container\\ContainerInterface",
        "ui-menu": "Oroboros\\core\\interfaces\\library\\container\\ContainerInterface"
    },
    "optional": {},
    "defaults": {}
}
