{
    "setup": {
        "default": "layout\\html\\setup\\SetupLayout",
        "error": {
            "401": "layout\\html\\setup\\error\\Error401Layout",
            "403": "layout\\html\\setup\\error\\Error403Layout",
            "404": "layout\\html\\setup\\error\\Error404Layout",
            "500": "layout\\html\\setup\\error\\Error500Layout"
        }
    }
}
