{
    "meta": {
        "file": {"format": "json", "name": "root.default.json", "path": "etc/users/", "path-relative": true},
        "mysql": {"connection": "default", "schema": "users", "table": "users", "columns": {}}
    },
    "inherit": {
    },
    "require": {
        "auth-users-root-host": ["string", "array"],
        "auth-users-root-identity": "root",
        "auth-users-root-password": "string",
        "auth-users-root-permissions-identity-groups": ["array", "Oroboros\\core\\interfaces\\library\\container\\ContainerInterface","Oroboros\\core\\interfaces\\library\\auth\\IdentityGroupInterface"],
        "auth-users-root-permissions": ["array", "Oroboros\\core\\interfaces\\library\\container\\ContainerInterface","Oroboros\\core\\interfaces\\library\\auth\\IdentityGroupInterface"]
    },
    "provide": {
        "auth-users-root-host": ["*", "localhost"],
        "auth-users-root-identity": "root",
        "auth-users-root-password": "root",
        "auth-users-root-permissions-identity-groups": {
            "root": "root"
        },
        "auth-users-root-permissions": {
            "root": "*"
        }
    },
    "optional": {},
    "defaults": {
        "default": false,
        "require-local": true,
        "require-network": false,
        "require-cli": false,
        "require-http": false,
        "host": "{::auth-users-root-host::}",
        "username": "{::auth-users-root-identity::}",
        "password": "{::auth-users-root-password::}",
        "identity-groups": "{::auth-users-root-permissions-identity-groups::}",
        "permissions": "{::auth-users-root-permissions::}",
        "details": {
            "organization": "{::auth-users-root-organization::}"
        }
    }
}
