{
    "require": {
        "account-notifications": [null, "array", "Oroboros\\core\\interfaces\\library\\container\\ContainerInterface"]
    },
    "optional": {},
    "provide": {
        "account-notifications": {
            "test": {
                "id": "test-notification",
                "permission": "http.frontend.view",
                "href": "/dashboard/",
                "title": "Test Notification",
                "icon": {
                    "icon": "far fa-bell",
                    "color": "info"
                },
                "date": "Just now",
                "content": "This is just a test of the notification system."
            }
        },
        "page-link": {
            "href": "/notifications/",
            "content": "View All Notifications"
        }
    },
    "defaults": {
        "id": "user-account-settings-menu",
        "page-link": "{::page-link::}",
        "class": false,
        "header": {
            "title": "Account Notifications",
            "class": "notifications-menu-header"
        },
        "links": "{::account-notifications::}"
    }
}
